Jahr,Quartal,Verkehrsart,Unternehmen__Anzahl,Befoerderte_Personen__1000,Personenkilometer__1000
2010,2010Q1,Liniennahverkehr insgesamt,42,113890,886234
2010,2010Q2,Liniennahverkehr insgesamt,42,110542,869644
2010,2010Q3,Liniennahverkehr insgesamt,42,99961,791971
2010,2010Q4,Liniennahverkehr insgesamt,42,118635,908615
2011,2011Q1,Liniennahverkehr insgesamt,45,113808,883326
2011,2011Q2,Liniennahverkehr insgesamt,45,113104,876135
2011,2011Q3,Liniennahverkehr insgesamt,45,102352,811820
2011,2011Q4,Liniennahverkehr insgesamt,45,116899,902423
2012,2012Q1,Liniennahverkehr insgesamt,45,114748,888516
2012,2012Q2,Liniennahverkehr insgesamt,45,113234,882221
2012,2012Q3,Liniennahverkehr insgesamt,43,101870,803220
2012,2012Q4,Liniennahverkehr insgesamt,42,119584,911419
2013,2013Q1,Liniennahverkehr insgesamt,41,116941,893540
2013,2013Q2,Liniennahverkehr insgesamt,41,116183,895495
2013,2013Q3,Liniennahverkehr insgesamt,41,103199,804590
2013,2013Q4,Liniennahverkehr insgesamt,41,119245,903626
2014,2014Q1,Liniennahverkehr insgesamt,40,113492,860438
2014,2014Q2,Liniennahverkehr insgesamt,40,112372,870550
2014,2014Q3,Liniennahverkehr insgesamt,40,103011,798001
2014,2014Q4,Liniennahverkehr insgesamt,40,117139,882773
2015,2015Q1,Liniennahverkehr insgesamt,40,109167,774594
2015,2015Q2,Liniennahverkehr insgesamt,40,108826,767425
2015,2015Q3,Liniennahverkehr insgesamt,40,98345,685997
2015,2015Q4,Liniennahverkehr insgesamt,39,113334,779579
2016,2016Q1,Liniennahverkehr insgesamt,35,112455,745998
2016,2016Q2,Liniennahverkehr insgesamt,35,113717,760122
2016,2016Q3,Liniennahverkehr insgesamt,35,102366,623724
2016,2016Q4,Liniennahverkehr insgesamt,35,117125,713491
2017,2017Q1,Liniennahverkehr insgesamt,35,116744,710200
2017,2017Q2,Liniennahverkehr insgesamt,35,114047,703129
2017,2017Q3,Liniennahverkehr insgesamt,35,104921,638158
2017,2017Q4,Liniennahverkehr insgesamt,35,117744,714270
2018,2018Q1,Liniennahverkehr insgesamt,35,116634,702953
2018,2018Q2,Liniennahverkehr insgesamt,35,116281,712941
2018,2018Q3,Liniennahverkehr insgesamt,35,104000,631949
2018,2018Q4,Liniennahverkehr insgesamt,35,119296,733141
2019,2019Q1,Liniennahverkehr insgesamt,35,116551,737668
2019,2019Q2,Liniennahverkehr insgesamt,34,112302,696639
2019,2019Q3,Liniennahverkehr insgesamt,32,102573,627555
2019,2019Q4,Liniennahverkehr insgesamt,31,116753,705514
2020,2020Q1,Liniennahverkehr insgesamt,30,94739,605192
2020,2020Q2,Liniennahverkehr insgesamt,,,
2020,2020Q3,Liniennahverkehr insgesamt,,,
2020,2020Q4,Liniennahverkehr insgesamt,,,
