Jahr,Sektor,Emissionen (kt CO2)
2009,"Gew. Steine u. Erden, Bergbau, verarb. Gewerbe insg.",7204.92410501393
2010,"Gew. Steine u. Erden, Bergbau, verarb. Gewerbe insg.",7957.0781521012295
2011,"Gew. Steine u. Erden, Bergbau, verarb. Gewerbe insg.",8808.91042308351
2012,"Gew. Steine u. Erden, Bergbau, verarb. Gewerbe insg.",9142.49056849355
2013,"Gew. Steine u. Erden, Bergbau, verarb. Gewerbe insg.",9163.01717392162
2014,"Gew. Steine u. Erden, Bergbau, verarb. Gewerbe insg.",9077.06224680042
2015,"Gew. Steine u. Erden, Bergbau, verarb. Gewerbe insg.",8948.265973168509
2016,"Gew. Steine u. Erden, Bergbau, verarb. Gewerbe insg.",8929.32763419863
2017,"Gew. Steine u. Erden, Bergbau, verarb. Gewerbe insg.",8716.056445787719
2009,Verkehr insgesamt,7870.565936444091
2010,Verkehr insgesamt,8006.03097683942
2011,Verkehr insgesamt,7637.274673055091
2012,Verkehr insgesamt,7877.9956863466905
2013,Verkehr insgesamt,7919.51216089472
2014,Verkehr insgesamt,7958.2542873371995
2015,Verkehr insgesamt,7967.501227222049
2016,Verkehr insgesamt,8159.08192522505
2017,Verkehr insgesamt,8403.97035912795
2009,"Haushalte, GHD, übrige Verbraucher",13659.166916023602
2010,"Haushalte, GHD, übrige Verbraucher",14185.2550986268
2011,"Haushalte, GHD, übrige Verbraucher",12847.884693895901
2012,"Haushalte, GHD, übrige Verbraucher",13809.5356384848
2013,"Haushalte, GHD, übrige Verbraucher",13960.3503191623
2014,"Haushalte, GHD, übrige Verbraucher",12765.607342145
2015,"Haushalte, GHD, übrige Verbraucher",12751.160454276298
2016,"Haushalte, GHD, übrige Verbraucher",12973.5661542888
2017,"Haushalte, GHD, übrige Verbraucher",12992.2426069501
